{
  "shoppers": [
    {
      "id": 1,
      "stocks": [
        "SUSHI",
        "CAMERA",
        "ROBOT"
      ],
      "cashRemaining": 300.0,
      "initialCash": 300.0
    },
    {
      "id": 2,
      "stocks": [
        "DOUGHNUT",
        "RAMEN",
        "MAKEUP"
      ],
      "cashRemaining": 210.0,
      "initialCash": 210.0
    },
    {
      "id": 3,
      "stocks": [
        "CAMERA",
        "MOBILE",
        "WHISKEY"
      ],
      "cashRemaining": 150.0,
      "initialCash": 150.0
    },
    {
      "id": 4,
      "stocks": [
        "SUSHI",
        "VINYL",
        "LAPTOP"
      ],
      "cashRemaining": 500.0,
      "initialCash": 500.0
    },
    {
      "id": 5,
      "stocks": [
        "DOUGHNUT",
        "MAKEUP",
        "RAMEN"
      ],
      "cashRemaining": 200.0,
      "initialCash": 200.0
    },
    {
      "id": 6,
      "stocks": [
        "VINYL",
        "SUSHI",
        "LAPTOP"
      ],
      "cashRemaining": 120.0,
      "initialCash": 120.0
    },
    {
      "id": 7,
      "stocks": [
        "DOUGHNUT",
        "ROBOT",
        "RAMEN"
      ],
      "cashRemaining": 310.0,
      "initialCash": 310.0
    },
    {
      "id": 8,
      "stocks": [
        "CAMERA",
        "WHISKEY",
        "SUSHI"
      ],
      "cashRemaining": 450.0,
      "initialCash": 450.0
    },
    {
      "id": 9,
      "stocks": [
        "MAKEUP",
        "MOBILE",
        "VINYL"
      ],
      "cashRemaining": 500.0,
      "initialCash": 500.0
    },
    {
      "id": 10,
      "stocks": [
        "DOUGHNUT",
        "RAMEN",
        "VINYL"
      ],
      "cashRemaining": 350.0,
      "initialCash": 350.0
    }
  ]
}